{
  "images" : [
    {
      "idiom" : "universal",
      "filename" : "cadillac-logo-png-cadillac-general-motors-clipart-803dae0f00d3e2d0.png",
      "scale" : "1x"
    },
    {
      "idiom" : "universal",
      "filename" : "cadillac-logo-png-cadillac-general-motors-clipart-803dae0f00d3e2d0@2x.png",
      "scale" : "2x"
    },
    {
      "idiom" : "universal",
      "filename" : "cadillac-logo-png-cadillac-general-motors-clipart-803dae0f00d3e2d0@3x.png",
      "scale" : "3x"
    }
  ],
  "info" : {
    "version" : 1,
    "author" : "xcode"
  }
}